* _pp.ob
MODULE badcase;

    VAR
        avar : INTEGER;
        bvar : BOOLEAN;

BEGIN
    CASE bvar OF
        18 : avar := 19
    END;
    CASE 1 < 2 OF
        avar : avar := 3
      | avar + 1 .. avar + 10 : avar := 5
    END;
    CASE avar OF
        3 DIV 0 : avar := 1
    END
END badcase.
[2]* errors
[3]src/org/bitbucket/inkytonik/kiama/example/oberon0/L2/tests/badcase.ob:8:10: type error: got BOOLEAN, but expected INTEGER
[3]    CASE bvar OF
[3]         ^
[3]src/org/bitbucket/inkytonik/kiama/example/oberon0/L2/tests/badcase.ob:12:10: type error: got BOOLEAN, but expected INTEGER
[3]    CASE 1 < 2 OF
[3]         ^
[2]src/org/bitbucket/inkytonik/kiama/example/oberon0/L2/tests/badcase.ob:13:9: expression is not constant
[2]        avar : avar := 3
[2]        ^
[2]src/org/bitbucket/inkytonik/kiama/example/oberon0/L2/tests/badcase.ob:14:9: expression is not constant
[2]      | avar + 1 .. avar + 10 : avar := 5
[2]        ^
[2]src/org/bitbucket/inkytonik/kiama/example/oberon0/L2/tests/badcase.ob:14:21: expression is not constant
[2]      | avar + 1 .. avar + 10 : avar := 5
[2]                    ^
[2]src/org/bitbucket/inkytonik/kiama/example/oberon0/L2/tests/badcase.ob:18:15: division by zero in constant expression
[2]        3 DIV 0 : avar := 1
[2]              ^
