.source src/org/bitbucket/inkytonik/kiama/example/minijava/tests/iffalse.java
.class public IfFalse
.super java/lang/Object

.method <init>()V
.limit stack 1
.limit locals 1
    aload_0
    invokespecial java/lang/Object/<init>()V
    return
.end method

.method public static main([Ljava/lang/String;)V
.limit stack 3
.limit locals 2
    getstatic java/lang/System/out Ljava/io/PrintStream;
    new IfFalseClass
    dup
    invokespecial IfFalseClass/<init>()V
    invokevirtual IfFalseClass/run()I
    invokevirtual java/io/PrintStream/println(I)V
    return
.end method

.source src/org/bitbucket/inkytonik/kiama/example/minijava/tests/iffalse.java
.class public IfFalseClass
.super java/lang/Object

.method <init>()V
.limit stack 1
.limit locals 1
    aload_0
    invokespecial java/lang/Object/<init>()V
    return
.end method

.method public run()I
.limit stack 1
.limit locals 2
    iconst_0
    ifeq L1
    bipush 42
    istore 1
    goto L2
L1:
    bipush 99
    istore 1
L2:
    iload 1
    ireturn
.end method

